{
	"id": null,
	"username": "Alireza",
	"password": "Meftahi",
	"role": {
		"id": null,
		"title": "admin",
		"features": [
			{
				"id": null,
				"title": "person-update",
				"url": "/person/items/update"
			},
			{
				"id": null,
				"title": "person-delete",
				"url": "/person/items/delete"
			},
			{
				"id": null,
				"title": "person-getById",
				"url": "/person/items/get"
			}
		]
	}
}